<?xml version="1.0" encoding="UTF-8"?>
<svg width="70px" height="70px" viewBox="0 0 70 70" version="1.1" xmlns="http://www.w3.org/2000/svg" xmlns:xlink="http://www.w3.org/1999/xlink">
    <defs></defs>
    <g id="Page-1" stroke="none" stroke-width="1" fill-rule="evenodd">
        <g id="Онлайн-Логика-страница-2" transform="translate(-373.000000, -5060.000000)">
            <path d="M416.226865,5093.8982 C414.061565,5096.2961 410.973465,5097.6848 407.741065,5097.6848 C404.505365,5097.6848 401.414465,5096.2935 399.252765,5093.8957 L399.247665,5093.89 C397.351265,5091.7859 396.294765,5089.0723 396.294765,5086.2385 C396.294765,5083.1595 397.501265,5080.2678 399.690465,5078.1027 C400.113965,5077.6838 400.118465,5077.0012 399.699265,5076.5777 C399.280565,5076.1545 398.597965,5076.1497 398.174165,5076.5686 C395.571665,5079.1439 394.138765,5082.577 394.138765,5086.2385 C394.138765,5088.9634 394.960865,5091.6155 396.493565,5093.8665 L396.718265,5094.1964 L396.361965,5094.3762 C396.347865,5094.3835 396.333665,5094.3903 396.319465,5094.3974 C396.209165,5094.4527 396.100965,5094.5117 395.990965,5094.5681 C395.824265,5094.654 395.657865,5094.7401 395.493465,5094.83 C395.377565,5094.8935 395.263265,5094.9595 395.148465,5095.0247 C394.994865,5095.112 394.840365,5095.1982 394.688665,5095.2886 C394.571365,5095.3587 394.454865,5095.4301 394.338865,5095.5018 C394.193465,5095.5917 394.047765,5095.6812 393.904065,5095.7739 C393.786965,5095.849 393.671365,5095.9264 393.555965,5096.0038 C393.416765,5096.0974 393.277365,5096.1903 393.139565,5096.2856 C393.023865,5096.3655 392.910565,5096.4483 392.796565,5096.5299 C392.662465,5096.626 392.529865,5096.7235 392.397765,5096.8222 C392.284965,5096.9067 392.173565,5096.9925 392.062365,5097.0787 C391.933665,5097.1788 391.805265,5097.2797 391.678565,5097.3823 C391.568565,5097.4713 391.459165,5097.5609 391.350665,5097.6519 C391.225865,5097.7562 391.102565,5097.8622 390.979565,5097.9688 C390.873565,5098.0606 390.767865,5098.1533 390.663465,5098.2472 C390.542765,5098.356 390.423365,5098.4668 390.304365,5098.5777 C390.201765,5098.6735 390.099165,5098.7693 389.998165,5098.8665 C389.880865,5098.9793 389.765765,5099.0941 389.650965,5099.2092 C389.552865,5099.3076 389.455065,5099.406 389.358965,5099.506 C389.245065,5099.6239 389.133065,5099.7436 389.021665,5099.8638 C388.928165,5099.9644 388.834565,5100.065 388.742465,5100.1671 C388.630465,5100.2912 388.522465,5100.4185 388.413365,5100.5446 C388.325765,5100.6453 388.236765,5100.7448 388.151465,5100.8474 C388.041165,5100.9792 387.934565,5101.1141 387.827165,5101.2485 C387.746965,5101.3488 387.665065,5101.4478 387.586165,5101.5492 C387.473365,5101.6947 387.363665,5101.8423 387.253965,5101.9903 C387.185065,5102.0836 387.113965,5102.1751 387.046465,5102.2692 C386.907565,5102.4617 386.772365,5102.657 386.639465,5102.8535 C386.604265,5102.9053 386.567165,5102.9561 386.532265,5103.0079 C386.365865,5103.2557 386.204365,5103.5063 386.047265,5103.7597 C385.993165,5103.8473 385.942165,5103.9366 385.889065,5104.0244 C385.787365,5104.1934 385.685265,5104.3618 385.588065,5104.5333 C385.527165,5104.6401 385.469265,5104.749 385.409765,5104.857 C385.324465,5105.0123 385.237665,5105.1671 385.155265,5105.3238 C385.094265,5105.4398 385.036765,5105.5574 384.977765,5105.6742 C384.901565,5105.8256 384.823865,5105.9764 384.750765,5106.1295 C384.692365,5106.2513 384.636165,5106.3744 384.579465,5106.4971 C384.509765,5106.6479 384.439765,5106.7984 384.373165,5106.9507 C384.318465,5107.0759 384.265465,5107.2021 384.212965,5107.3285 C384.149465,5107.481 384.086865,5107.6341 384.025565,5107.7874 C383.974565,5107.9158 383.925565,5108.0448 383.876765,5108.1741 C383.818965,5108.3274 383.761965,5108.4814 383.707565,5108.6358 C383.660765,5108.7674 383.615165,5108.8992 383.570965,5109.0313 C383.519065,5109.1863 383.467165,5109.3414 383.418465,5109.4973 C383.376765,5109.6314 383.335365,5109.7655 383.295365,5109.9001 C383.248365,5110.0583 383.204165,5110.217 383.159865,5110.376 C383.122765,5110.5098 383.085665,5110.6436 383.051665,5110.778 C383.010565,5110.9393 382.970265,5111.1009 382.932265,5111.263 C382.900565,5111.3988 382.868265,5111.534 382.838165,5111.6701 C382.801865,5111.8342 382.767565,5111.9989 382.734965,5112.1638 C382.708065,5112.2999 382.680865,5112.4357 382.655665,5112.5718 C382.624465,5112.7407 382.597565,5112.9102 382.569765,5113.0797 C382.548165,5113.2132 382.524965,5113.3465 382.505665,5113.48 C382.480165,5113.6557 382.458665,5113.8318 382.436765,5114.0078 C382.420665,5114.1387 382.402765,5114.2694 382.388365,5114.4004 C382.368165,5114.5855 382.353465,5114.7714 382.337065,5114.9568 C382.326265,5115.0807 382.312365,5115.204 382.303565,5115.3282 C382.288565,5115.5357 382.279165,5115.7437 382.269265,5115.9518 C382.264165,5116.0558 382.255965,5116.1596 382.252265,5116.2636 C382.240365,5116.5771 382.234965,5116.8909 382.234965,5117.2047 C382.234965,5117.544 382.246565,5117.8827 382.260165,5118.2218 C382.262765,5118.285 382.272065,5118.3479 382.284865,5118.41 C382.286265,5118.4171 382.287665,5118.4244 382.286865,5118.4213 C382.299365,5118.4775 382.318265,5118.5324 382.339565,5118.5857 C382.342665,5118.5931 382.345765,5118.6002 382.348965,5118.6076 C382.370765,5118.6592 382.397665,5118.709 382.427765,5118.7564 C382.430565,5118.7609 382.433665,5118.7652 382.436465,5118.7697 L382.439365,5118.774 L382.444465,5118.7813 C382.474465,5118.8275 382.509065,5118.8706 382.546165,5118.9112 C382.553865,5118.9194 382.561265,5118.9279 382.568365,5118.9367 L382.745765,5119.1257 C382.885765,5119.2754 383.026365,5119.4248 383.171265,5119.5699 C389.707965,5126.1052 398.500765,5129.7299 407.739965,5129.7299 C416.979465,5129.7299 425.771165,5126.1058 432.307865,5119.5699 C432.452965,5119.4248 432.593265,5119.2754 432.733565,5119.1257 L432.922165,5118.9248 C439.138465,5112.2971 442.583465,5103.6843 442.477665,5094.5837 C442.371365,5085.4615 438.760065,5076.8844 432.308965,5070.4336 C425.774865,5063.8995 416.985165,5060.2734 407.747865,5060.2734 L407.733765,5060.2734 C398.496765,5060.2734 389.707065,5063.8995 383.172665,5070.4336 C378.430865,5075.1754 375.171865,5081.144 373.770765,5087.7017 C372.412065,5094.0612 372.854565,5100.6762 375.059665,5106.7942 C375.261465,5107.3537 375.880565,5107.644 376.440065,5107.4422 C377.000265,5107.2404 377.289965,5106.6218 377.088065,5106.062 C375.019965,5100.323 374.605265,5094.1176 375.879165,5088.1518 C377.192465,5082.0018 380.250965,5076.4042 384.697665,5071.9575 C397.403165,5059.2512 418.077965,5059.2524 430.783965,5071.9575 C436.833665,5078.0067 440.222465,5086.0528 440.321665,5094.6072 C440.420865,5103.1341 437.237565,5111.2553 431.362165,5117.4363 C431.293865,5117.508 431.226465,5117.58 431.158965,5117.6526 C431.035365,5117.7847 430.912065,5117.917 430.783965,5118.0449 C418.077965,5130.7501 397.403465,5130.7509 384.697665,5118.0449 C384.627965,5117.9752 384.559665,5117.9043 384.492465,5117.8323 L384.402665,5117.7356 L384.398965,5117.6035 C384.395265,5117.4706 384.391865,5117.3376 384.391865,5117.2047 C384.391865,5116.9136 384.397565,5116.6225 384.408265,5116.3316 C384.411665,5116.235 384.418765,5116.1389 384.423565,5116.0425 C384.432965,5115.85 384.442565,5115.6578 384.456465,5115.4656 C384.464665,5115.3514 384.476865,5115.2377 384.487365,5115.1238 C384.502965,5114.9514 384.516865,5114.7791 384.535565,5114.607 C384.548565,5114.486 384.566765,5114.3658 384.581765,5114.245 C384.601865,5114.0815 384.621165,5113.9182 384.645265,5113.7552 C384.663965,5113.6308 384.685765,5113.5066 384.706465,5113.3887 C384.731465,5113.2297 384.757565,5113.0709 384.786765,5112.9125 C384.809665,5112.7878 384.836065,5112.6636 384.861265,5112.5394 C384.892765,5112.3852 384.922465,5112.2305 384.957065,5112.0768 C384.985165,5111.953 385.015765,5111.8296 385.045565,5111.7061 C385.081765,5111.555 385.116965,5111.4039 385.156365,5111.2536 C385.188965,5111.1298 385.224665,5111.007 385.258965,5110.8837 C385.300365,5110.7352 385.340865,5110.5867 385.385665,5110.4392 C385.422765,5110.3159 385.462765,5110.1938 385.502465,5110.0713 C385.549265,5109.9262 385.594565,5109.7808 385.643865,5109.6368 C385.685265,5109.5154 385.728965,5109.395 385.772065,5109.2742 C385.823365,5109.1313 385.875265,5108.9885 385.929365,5108.8465 C385.975265,5108.726 386.022865,5108.6061 386.071065,5108.4865 C386.127765,5108.3467 386.184465,5108.207 386.243165,5108.0681 C386.293365,5107.9496 386.344665,5107.8317 386.396765,5107.7143 C386.458065,5107.5765 386.520365,5107.4393 386.584165,5107.3027 C386.638865,5107.1859 386.694465,5107.0694 386.751165,5106.9538 C386.817465,5106.8186 386.884065,5106.6831 386.952965,5106.549 C387.011065,5106.4359 387.069765,5106.3228 387.129865,5106.2105 C387.201265,5106.0767 387.272965,5105.9432 387.347565,5105.8111 C387.409565,5105.7006 387.471965,5105.5903 387.535465,5105.4809 C387.611165,5105.3499 387.688265,5105.2201 387.766465,5105.0906 C387.831965,5104.9817 387.899765,5104.874 387.967165,5104.766 C388.047665,5104.6376 388.129565,5104.51 388.212965,5104.383 C388.282165,5104.2773 388.352665,5104.1727 388.423265,5104.0678 C388.508565,5103.9411 388.597065,5103.8164 388.685765,5103.6917 C388.758865,5103.589 388.831165,5103.4859 388.906065,5103.3844 C388.996165,5103.2619 389.088265,5103.1409 389.180665,5103.0201 C389.257565,5102.9195 389.333765,5102.8186 389.412565,5102.7194 C389.507565,5102.5998 389.605065,5102.4818 389.702265,5102.3639 C389.782165,5102.267 389.861065,5102.1695 389.942665,5102.0739 C390.042765,5101.9569 390.144465,5101.8412 390.246565,5101.7261 C390.329265,5101.6329 390.411265,5101.5387 390.495365,5101.4469 C390.600265,5101.3324 390.707965,5101.2201 390.815165,5101.1079 C390.901065,5101.0177 390.985765,5100.9267 391.073065,5100.8383 C391.182765,5100.7272 391.295365,5100.6186 391.406765,5100.5092 C391.494865,5100.4227 391.582465,5100.3357 391.672365,5100.251 C391.787965,5100.1418 391.906165,5100.0352 392.024165,5099.9287 C392.113665,5099.8476 392.201865,5099.7654 392.292265,5099.6855 C392.413865,5099.5777 392.538865,5099.474 392.663065,5099.3688 C392.754065,5099.292 392.844165,5099.2141 392.936865,5099.1389 C393.065565,5099.0343 393.196265,5098.9314 393.327465,5098.8294 C393.418765,5098.7585 393.508365,5098.6854 393.600465,5098.6154 C393.738565,5098.5108 393.879965,5098.411 394.020265,5098.3092 C394.108765,5098.2449 394.196065,5098.1788 394.285565,5098.1156 C394.440965,5098.0059 394.599665,5097.9016 394.757265,5097.7959 C394.835265,5097.7437 394.911765,5097.6899 394.990265,5097.6388 C395.197265,5097.5039 395.407265,5097.3741 395.618765,5097.2465 C395.651665,5097.2264 395.683665,5097.2049 395.716865,5097.185 C395.961765,5097.0387 396.209465,5096.897 396.459465,5096.7595 C396.545965,5096.7119 396.633865,5096.6674 396.720565,5096.6212 C396.887265,5096.5322 397.054165,5096.4435 397.222865,5096.3584 C397.331765,5096.3034 397.442265,5096.2521 397.551965,5096.1988 C397.689765,5096.1319 397.827265,5096.0648 397.966165,5096.0001 L398.182965,5095.8989 L398.355865,5096.0642 C400.879865,5098.4765 404.247665,5099.8405 407.741065,5099.8405 C411.234565,5099.8405 414.602065,5098.4751 417.127165,5096.0642 L417.299565,5095.8995 L417.516065,5095.9998 C422.649065,5098.3756 426.846365,5102.636 429.125065,5107.8155 C429.363465,5108.3578 430.002965,5108.6072 430.545265,5108.3685 C431.088065,5108.1296 431.337265,5107.4895 431.098265,5106.9467 C428.685765,5101.4631 424.478865,5097.0507 419.117065,5094.383 L418.757665,5094.2041 L418.983865,5093.8724 C420.519165,5091.6195 421.342865,5088.9665 421.342865,5086.2385 C421.342865,5078.7386 415.241065,5072.6364 407.741065,5072.6364 C407.145565,5072.6364 406.662565,5073.1194 406.662565,5073.715 C406.662565,5074.31 407.146165,5074.7933 407.741065,5074.7933 C414.052165,5074.7933 419.187365,5079.9271 419.187365,5086.2385 C419.187365,5089.0717 418.130965,5091.7867 416.234265,5093.89 L416.228065,5093.8968 L416.226865,5093.8982 Z" id="Fill-1"></path>
        </g>
    </g>
</svg>