<?xml version="1.0" encoding="UTF-8"?>
<svg width="46px" height="46px" viewBox="0 0 46 46" version="1.1" xmlns="http://www.w3.org/2000/svg" xmlns:xlink="http://www.w3.org/1999/xlink">
    <!-- Generator: Sketch 50.2 (55047) - http://www.bohemiancoding.com/sketch -->
    <title>Group 11</title>
    <desc>Created with Sketch.</desc>
    <defs></defs>
    <g id="Page-1" stroke="none" stroke-width="1" fill="none" fill-rule="evenodd">
        <g id="Онлайн-Логика-Стань-экспертом" transform="translate(-998.000000, -6303.000000)" fill="#E80000">
            <g id="Group-11" transform="translate(998.000000, 6303.000000)">
                <path d="M11.1409,20.4764 C11.309,20.4764 11.4703,20.4095 11.5894,20.2905 L17.5183,14.3612 C17.5677,14.3122 17.6482,14.3122 17.6975,14.3612 L22.8656,19.5297 C23.1134,19.7774 23.5147,19.7774 23.7625,19.5297 L34.4125,8.8796 C34.6557,8.6279 34.6489,8.2259 34.3969,7.9827 C34.1512,7.7455 33.7614,7.7455 33.5171,7.9813 L23.4036,18.0948 C23.3543,18.1441 23.2738,18.1441 23.2245,18.0948 L18.0563,12.9266 C17.8086,12.6789 17.4072,12.6789 17.1595,12.9266 L10.6925,19.3936 C10.4448,19.6413 10.4448,20.043 10.6928,20.2908 C10.8116,20.4095 10.9729,20.4764 11.1409,20.4764" id="Fill-187"></path>
                <path d="M43.8562,0.1872 L2.7719,0.1872 C1.5811,0.1872 0.6159,1.1524 0.6159,2.3432 C0.6159,3.5337 1.5811,4.4989 2.7719,4.4989 C2.8417,4.4989 2.8984,4.5559 2.8984,4.6257 L2.8984,24.4069 C2.8984,24.7573 3.1824,25.0413 3.5328,25.0413 L43.0953,25.0413 C43.4457,25.0413 43.7297,24.7573 43.7297,24.4069 L43.7297,4.6257 C43.7297,4.5559 43.7864,4.4989 43.8562,4.4989 C45.047,4.4989 46.0122,3.534 46.0122,2.3432 C46.0122,1.1524 45.047,0.1872 43.8562,0.1872 Z M42.3345,23.7726 L4.2936,23.7726 C4.2238,23.7726 4.1671,23.7159 4.1671,23.6461 L4.1671,4.6257 C4.1671,4.5559 4.2238,4.4989 4.2936,4.4989 L42.3345,4.4989 C42.4043,4.4989 42.4612,4.5559 42.4612,4.6257 L42.4612,23.6461 C42.4612,23.7159 42.4043,23.7726 42.3345,23.7726 Z M43.8562,3.2304 L2.7719,3.2304 C2.2818,3.2304 1.8847,2.833 1.8847,2.3432 C1.8847,1.8531 2.2818,1.456 2.7719,1.456 L43.8562,1.456 C44.3463,1.456 44.7434,1.8531 44.7434,2.3432 C44.7434,2.833 44.3463,3.2304 43.8562,3.2304 Z" id="Fill-188"></path>
                <path d="M41.5737,35.1848 L35.4871,35.1848 C33.4573,35.1848 31.8095,36.8326 31.8095,38.8625 L31.8095,44.9491 C31.8095,45.2994 32.0935,45.5834 32.4439,45.5834 L44.617,45.5834 C44.9673,45.5834 45.2514,45.2994 45.2514,44.9491 L45.2514,38.8625 C45.2514,36.8326 43.6039,35.1848 41.5737,35.1848 Z M43.8562,44.3147 L42.3345,44.3147 C42.2648,44.3147 42.2081,44.258 42.2081,44.1882 L42.2081,41.145 C42.2081,40.7946 41.9241,40.5106 41.5737,40.5106 C41.2233,40.5106 40.9393,40.7946 40.9393,41.145 L40.9393,44.1882 C40.9393,44.258 40.8826,44.3147 40.8129,44.3147 L36.248,44.3147 C36.1782,44.3147 36.1215,44.258 36.1215,44.1882 L36.1215,41.145 C36.1215,40.7946 35.8375,40.5106 35.4871,40.5106 C35.1368,40.5106 34.8528,40.7946 34.8528,41.145 L34.8528,44.1882 C34.8528,44.258 34.7961,44.3147 34.7263,44.3147 L33.2047,44.3147 C33.135,44.3147 33.0783,44.258 33.0783,44.1882 L33.0783,38.8625 C33.0783,37.5322 34.1569,36.4536 35.4871,36.4536 L41.5737,36.4536 C42.9043,36.4536 43.9826,37.5322 43.9826,38.8625 L43.9826,44.1882 C43.9826,44.258 43.9259,44.3147 43.8562,44.3147 Z" id="Fill-189"></path>
                <path d="M11.1409,35.1848 L5.0544,35.1848 C3.0242,35.1848 1.3767,36.8326 1.3767,38.8625 L1.3767,44.9491 C1.3767,45.2994 1.6608,45.5834 2.0111,45.5834 L14.1842,45.5834 C14.5346,45.5834 14.8186,45.2994 14.8186,44.9491 L14.8186,38.8625 C14.8186,36.8326 13.1708,35.1848 11.1409,35.1848 Z M13.4234,44.3147 L11.9018,44.3147 C11.832,44.3147 11.7753,44.258 11.7753,44.1882 L11.7753,41.145 C11.7753,40.7946 11.4913,40.5106 11.1409,40.5106 C10.7906,40.5106 10.5066,40.7946 10.5066,41.145 L10.5066,44.1882 C10.5066,44.258 10.4499,44.3147 10.3801,44.3147 L5.8152,44.3147 C5.7455,44.3147 5.6888,44.258 5.6888,44.1882 L5.6888,41.145 C5.6888,40.7946 5.4048,40.5106 5.0544,40.5106 C4.704,40.5106 4.42,40.7946 4.42,41.145 L4.42,44.1882 C4.42,44.258 4.3633,44.3147 4.2936,44.3147 L2.7719,44.3147 C2.7022,44.3147 2.6452,44.258 2.6452,44.1882 L2.6452,38.8625 C2.6452,37.5322 3.7238,36.4536 5.0544,36.4536 L11.1409,36.4536 C12.4712,36.4536 13.5498,37.5322 13.5498,38.8625 L13.5498,44.1882 C13.5498,44.258 13.4931,44.3147 13.4234,44.3147 Z" id="Fill-190"></path>
                <path d="M38.5304,34.1712 C40.562,34.1723 42.2081,32.5242 42.2081,30.4935 C42.2081,28.4625 40.5614,26.8158 38.5304,26.8158 C36.4997,26.8158 34.8516,28.4622 34.8528,30.4935 C34.8542,32.5237 36.5005,34.17 38.5304,34.1712 Z M38.5304,28.0846 C39.861,28.0846 40.9393,29.1632 40.9393,30.4935 C40.9393,31.8238 39.861,32.9024 38.5304,32.9024 C37.2001,32.9024 36.1215,31.8238 36.1215,30.4935 C36.1215,29.1632 37.2001,28.0846 38.5304,28.0846 Z" id="Fill-191"></path>
                <path d="M8.0977,34.1712 C10.129,34.1723 11.7753,32.5242 11.7753,30.4935 C11.7753,28.4625 10.1287,26.8158 8.0977,26.8158 C6.0669,26.8158 4.4189,28.4622 4.42,30.4935 C4.4211,32.5237 6.0675,34.17 8.0977,34.1712 Z M8.0977,28.0846 C9.428,28.0846 10.5066,29.1632 10.5066,30.4935 C10.5066,31.8238 9.428,32.9024 8.0977,32.9024 C6.7674,32.9024 5.6888,31.8238 5.6888,30.4935 C5.6888,29.1632 6.7674,28.0846 8.0977,28.0846 Z" id="Fill-192"></path>
                <path d="M26.3573,35.1848 L20.2708,35.1848 C18.2406,35.1848 16.5931,36.8326 16.5931,38.8625 L16.5931,44.9491 C16.5931,45.2994 16.8771,45.5834 17.2275,45.5834 L29.4006,45.5834 C29.751,45.5834 30.035,45.2994 30.035,44.9491 L30.035,38.8625 C30.035,36.8326 28.3875,35.1848 26.3573,35.1848 Z M28.6398,44.3147 L27.1181,44.3147 C27.0484,44.3147 26.9917,44.258 26.9917,44.1882 L26.9917,41.145 C26.9917,40.7946 26.7077,40.5106 26.3573,40.5106 C26.007,40.5106 25.7229,40.7946 25.7229,41.145 L25.7229,44.1882 C25.7229,44.258 25.6662,44.3147 25.5965,44.3147 L21.0316,44.3147 C20.9619,44.3147 20.9052,44.258 20.9052,44.1882 L20.9052,41.145 C20.9052,40.7946 20.6211,40.5106 20.2708,40.5106 C19.9204,40.5106 19.6364,40.7946 19.6364,41.145 L19.6364,44.1882 C19.6364,44.258 19.5797,44.3147 19.51,44.3147 L17.9883,44.3147 C17.9186,44.3147 17.8619,44.258 17.8619,44.1882 L17.8619,38.8625 C17.8619,37.5322 18.9405,36.4536 20.2708,36.4536 L26.3573,36.4536 C27.6876,36.4536 28.7662,37.5322 28.7662,38.8625 L28.7662,44.1882 C28.7662,44.258 28.7095,44.3147 28.6398,44.3147 Z" id="Fill-193"></path>
                <path d="M23.314,34.1712 C25.3454,34.1723 26.9917,32.5242 26.9917,30.4935 C26.9917,28.4625 25.3451,26.8158 23.314,26.8158 C21.2833,26.8158 19.6352,28.4622 19.6364,30.4935 C19.6375,32.5237 21.2842,34.17 23.314,34.1712 Z M23.314,28.0846 C24.6443,28.0846 25.7229,29.1632 25.7229,30.4935 C25.7229,31.8238 24.6443,32.9024 23.314,32.9024 C21.9837,32.9024 20.9052,31.8238 20.9052,30.4935 C20.9052,29.1632 21.9837,28.0846 23.314,28.0846 Z" id="Fill-194"></path>
            </g>
        </g>
    </g>
</svg>