<?xml version="1.0" encoding="UTF-8"?>
<svg width="25px" height="29px" viewBox="0 0 25 29" version="1.1" xmlns="http://www.w3.org/2000/svg" xmlns:xlink="http://www.w3.org/1999/xlink">
    <!-- Generator: Sketch 50.2 (55047) - http://www.bohemiancoding.com/sketch -->
    <title>Group 14</title>
    <desc>Created with Sketch.</desc>
    <defs></defs>
    <g id="Page-1" stroke="none" stroke-width="1" fill="none" fill-rule="evenodd">
        <g id="Онлайн-Логика-Стань-экспертом" transform="translate(-599.000000, -1489.000000)" fill="#666666">
            <g id="Group-14" transform="translate(599.000000, 1489.000000)">
                <path d="M24.9259,27.0206 C24.9259,27.5824 24.4517,28.0475 23.8941,28.0475 L1.7294,28.0475 C1.1665,28.0475 0.6976,27.5756 0.6976,27.0157 L0.6976,1.7259 C0.6976,1.1521 1.1356,0.7046 1.7113,0.6943 L23.8729,0.6943 C24.4489,0.7046 24.8817,1.1527 24.9256,1.7185 C24.9259,1.7208 24.9259,1.7228 24.9259,1.725 L24.9259,27.0206 Z M23.9315,26.9012 L23.9315,1.7259 C23.9315,1.7074 23.9091,1.6904 23.8941,1.6885 L1.7294,1.6885 C1.6957,1.6885 1.6923,1.6921 1.6923,1.7259 L1.6923,26.9746 C1.6923,26.9931 1.7147,27.0101 1.7294,27.0118 L23.853,27.0118 C23.8714,27.0118 23.8884,26.9902 23.8904,26.9738 C23.8904,26.9429 23.9069,26.916 23.9315,26.9012 Z M22.2492,12.7838 C22.5437,12.7838 22.7466,12.9868 22.7466,13.281 C22.7466,13.5753 22.5437,13.7782 22.2492,13.7782 L20.6456,13.7782 C20.3514,13.7782 20.1484,13.5753 20.1484,13.281 C20.1484,12.9868 20.3514,12.7838 20.6456,12.7838 L22.2492,12.7838 Z M22.2492,8.8771 C22.5437,8.8771 22.7466,9.0804 22.7466,9.3746 C22.7466,9.6688 22.5437,9.8718 22.2492,9.8718 L20.6456,9.8718 C20.3514,9.8718 20.1484,9.6688 20.1484,9.3746 C20.1484,9.0804 20.3514,8.8771 20.6456,8.8771 L22.2492,8.8771 Z M13.9428,9.8718 C13.669,9.8718 13.4456,9.6487 13.4456,9.3746 C13.4456,9.0804 13.6486,8.8771 13.9428,8.8771 L18.6716,8.8771 C18.9661,8.8771 19.169,9.0804 19.169,9.3746 C19.169,9.6688 18.9661,9.8718 18.6716,9.8718 L13.9428,9.8718 Z M22.2492,10.8923 C22.5437,10.8923 22.7466,11.0952 22.7466,11.3895 C22.7466,11.6837 22.5434,11.8867 22.2492,11.8867 L17.5615,11.8867 C17.2673,11.8867 17.0643,11.6837 17.0643,11.3895 C17.0643,11.0952 17.2673,10.8923 17.5615,10.8923 L22.2492,10.8923 Z M22.2492,6.78 C22.5437,6.78 22.7466,6.983 22.7466,7.2772 C22.7466,7.5715 22.5434,7.7744 22.2492,7.7744 L17.5615,7.7744 C17.2673,7.7744 17.0643,7.5715 17.0643,7.2772 C17.0643,6.983 17.2673,6.78 17.5615,6.78 L22.2492,6.78 Z M13.9428,13.7782 C13.6894,13.7782 13.4456,13.5342 13.4456,13.281 C13.4456,12.9868 13.6486,12.7838 13.9428,12.7838 L18.6716,12.7838 C18.9661,12.7838 19.169,12.9868 19.169,13.281 C19.169,13.5753 18.9661,13.7782 18.6716,13.7782 L13.9428,13.7782 Z M13.9428,11.8867 C13.6897,11.8867 13.4456,11.6426 13.4456,11.3895 C13.4456,11.0952 13.6486,10.8923 13.9428,10.8923 L15.5464,10.8923 C15.8409,10.8923 16.0436,11.0952 16.0436,11.3895 C16.0436,11.6837 15.8406,11.8867 15.5464,11.8867 L13.9428,11.8867 Z M13.4456,7.2772 C13.4456,6.983 13.6486,6.78 13.9428,6.78 L15.5464,6.78 C15.8409,6.78 16.0436,6.983 16.0436,7.2772 C16.0436,7.5715 15.8406,7.7744 15.5464,7.7744 L13.9428,7.7744 C13.669,7.7744 13.4456,7.5514 13.4456,7.2772 Z M21.8792,23.3522 C22.1531,23.3522 22.3764,23.5753 22.3764,23.8494 C22.3764,24.1437 22.1735,24.3466 21.8792,24.3466 L3.4566,24.3466 C3.1624,24.3466 2.9594,24.1437 2.9594,23.8494 C2.9594,23.5552 3.1624,23.3522 3.4566,23.3522 L21.8792,23.3522 Z M21.8792,19.9801 C22.1531,19.9801 22.3764,20.2032 22.3764,20.4773 C22.3764,20.7716 22.1735,20.9745 21.8792,20.9745 L3.4566,20.9745 C3.1624,20.9745 2.9594,20.7716 2.9594,20.4773 C2.9594,20.1831 3.1624,19.9801 3.4566,19.9801 L21.8792,19.9801 Z M21.8792,16.5669 C22.1531,16.5669 22.3764,16.79 22.3764,17.0641 C22.3764,17.3584 22.1735,17.5616 21.8792,17.5616 L3.4566,17.5616 C3.1624,17.5616 2.9594,17.3587 2.9594,17.0641 C2.9594,16.7699 3.1624,16.5669 3.4566,16.5669 L21.8792,16.5669 Z M6.5234,8.1781 C5.7039,7.8028 5.099,7.0326 4.8943,6.1451 C4.6378,5.0342 4.9819,3.8969 5.849,3.1477 C6.5792,2.5165 7.5532,2.2851 8.4915,2.5054 C9.6225,2.7234 10.4809,3.6401 10.7368,4.7496 C10.9395,5.6278 10.7462,6.555 10.2002,7.2736 C9.9031,7.6642 9.5185,7.9737 9.0786,8.1781 L9.2549,8.1781 C10.8649,8.1781 12.1782,9.4914 12.1782,11.1017 L12.1782,13.4454 C12.1782,13.74 11.9753,13.9429 11.681,13.9429 L3.9501,13.9429 C3.697,13.9429 3.4529,13.6988 3.4529,13.4454 L3.4529,11.1017 C3.4529,9.4917 4.7662,8.1781 6.3763,8.1781 L6.5234,8.1781 Z M5.8437,5.9022 C5.9998,6.6309 6.6133,7.2401 7.3406,7.3988 C8.8195,7.7214 10.105,6.4325 9.7875,4.9514 C9.6316,4.224 9.0204,3.6084 8.2914,3.455 C6.8089,3.1429 5.5265,4.4219 5.8437,5.9022 Z M4.4473,12.9482 L5.3856,12.9482 L5.3856,11.9241 C5.3856,11.6298 5.5885,11.4269 5.8828,11.4269 C6.177,11.4269 6.3803,11.6298 6.3803,11.9241 L6.3803,12.9482 L9.2512,12.9482 L9.2512,11.9241 C9.2512,11.6298 9.4541,11.4269 9.7484,11.4269 C10.0426,11.4269 10.2456,11.6298 10.2456,11.9241 L10.2456,12.9482 L11.2249,12.9482 L11.2249,11.1017 C11.2249,10.0388 10.3587,9.1728 9.296,9.1728 L6.3763,9.1728 C5.3136,9.1728 4.4473,10.0388 4.4473,11.1017 L4.4473,12.9482 Z" id="Fill-362"></path>
            </g>
        </g>
    </g>
</svg>