<?xml version="1.0" encoding="UTF-8"?>
<svg width="39px" height="45px" viewBox="0 0 39 45" version="1.1" xmlns="http://www.w3.org/2000/svg" xmlns:xlink="http://www.w3.org/1999/xlink">
    <!-- Generator: Sketch 50.2 (55047) - http://www.bohemiancoding.com/sketch -->
    <title>Group 13</title>
    <desc>Created with Sketch.</desc>
    <defs></defs>
    <g id="Page-1" stroke="none" stroke-width="1" fill="none" fill-rule="evenodd">
        <g id="Онлайн-Логика-Стань-экспертом" transform="translate(-834.000000, -1412.000000)" fill="#E80000">
            <g id="Group-13" transform="translate(834.000000, 1412.000000)">
                <path d="M18.7286,26.4621 C17.7413,26.4621 16.9411,27.262 16.9411,28.2493 C16.9411,29.2366 17.7413,30.0366 18.7286,30.0366 C19.7159,30.0366 20.5158,29.2366 20.5158,28.2493 C20.5158,27.262 19.7159,26.4621 18.7286,26.4621" id="Fill-357"></path>
                <path d="M20.4875,9.4627 L14.3309,9.4627 C13.6835,9.4627 13.1594,9.9871 13.1594,10.6343 C13.1594,11.2817 13.6835,11.8061 14.3309,11.8061 L20.4875,11.8061 C22.2665,11.8061 23.7133,13.2529 23.7133,15.032 C23.7133,16.811 22.2665,18.2578 20.4875,18.2578 L18.7286,18.2578 C18.0812,18.2578 17.5568,18.7822 17.5568,19.4293 L17.5568,21.9618 C17.5568,22.609 18.0812,23.1334 18.7286,23.1334 C19.3757,23.1334 19.9002,22.609 19.9002,21.9618 L19.9002,21.1885 C19.9002,20.8648 20.1641,20.6012 20.4875,20.6012 C23.558,20.6012 26.0567,18.1024 26.0567,15.032 C26.0567,11.9615 23.558,9.4627 20.4875,9.4627" id="Fill-358"></path>
                <path d="M19.6079,0.7663 C9.3853,0.7663 0.8462,8.8499 0.8462,19.1632 C0.8462,25.0371 3.6817,30.4802 8.4215,33.9334 C8.5783,34.0476 8.6631,34.2143 8.6631,34.4082 L8.6631,43.4507 C8.6631,43.9159 8.938,44.3365 9.3641,44.5236 C9.5129,44.5888 9.6733,44.6223 9.836,44.6223 L9.842,44.6223 C10.1337,44.6223 10.4134,44.5103 10.628,44.313 L17.8527,37.668 C17.9757,37.5546 18.1234,37.5028 18.2904,37.5144 C18.7289,37.5444 19.1685,37.56 19.6079,37.56 C29.8308,37.56 38.3696,29.4765 38.3696,19.1632 C38.3696,8.8487 29.8308,0.7663 19.6079,0.7663 Z M19.6079,35.2166 C18.9905,35.2166 18.3723,35.1823 17.7586,35.1148 C17.4232,35.078 17.0865,35.1888 16.8382,35.4173 L11.9915,39.8751 C11.816,40.0366 11.5759,40.0763 11.358,39.9808 C11.1397,39.885 11.0065,39.6812 11.0065,39.4428 L11.0065,33.4863 C11.0065,33.0915 10.8075,32.723 10.4772,32.5064 C5.9588,29.5439 3.1896,24.5773 3.1896,19.1632 C3.1896,10.17 10.7017,3.1097 19.6079,3.1097 C28.5144,3.1097 36.0265,10.17 36.0265,19.1632 C36.0265,28.1564 28.5141,35.2166 19.6079,35.2166 Z" id="Fill-359"></path>
            </g>
        </g>
    </g>
</svg>