<?xml version="1.0" encoding="UTF-8"?>
<svg width="29px" height="29px" viewBox="0 0 29 29" version="1.1" xmlns="http://www.w3.org/2000/svg" xmlns:xlink="http://www.w3.org/1999/xlink">
    <!-- Generator: Sketch 50.2 (55047) - http://www.bohemiancoding.com/sketch -->
    <title>Group 18</title>
    <desc>Created with Sketch.</desc>
    <defs></defs>
    <g id="Page-1" stroke="none" stroke-width="1" fill="none" fill-rule="evenodd">
        <g id="Онлайн-Логика-Стань-экспертом" transform="translate(-799.000000, -3325.000000)" fill="#E80000">
            <g id="Group-18" transform="translate(799.000000, 3325.000000)">
                <path d="M11.9451,13.6827 C12.0239,13.7235 12.1103,13.7465 12.1968,13.7465 C12.2932,13.7465 12.3895,13.7181 12.476,13.6651 L18.1983,10.0209 C18.3483,9.9274 18.4392,9.7595 18.4392,9.5812 C18.4392,9.4038 18.3483,9.2385 18.1983,9.145 L12.476,5.5008 C12.3133,5.3996 12.1129,5.3916 11.9451,5.4835 C11.7798,5.5742 11.6761,5.7499 11.6761,5.9407 L11.6761,13.2252 C11.6761,13.4157 11.7798,13.5908 11.9451,13.6827 Z M12.7147,6.8883 L16.9508,9.5812 L12.7147,12.2773 L12.7147,6.8883 Z" id="Fill-16"></path>
                <path d="M0.7474,0.2159 L0.7474,28.8364 L28.8469,28.8364 L28.8469,0.2159 L0.7474,0.2159 Z M27.8083,1.2579 L27.8083,18.429 L1.7894,18.429 L1.7894,1.2579 L27.8083,1.2579 Z M1.7894,27.7944 L1.7894,19.471 L27.8083,19.471 L27.8083,27.7944 L1.7894,27.7944 Z" id="Fill-17"></path>
                <path d="M25.2064,23.1116 L12.7147,23.1116 L12.7147,22.073 C12.7147,21.7827 12.4839,21.552 12.1968,21.552 C11.9068,21.552 11.6761,21.7827 11.6761,22.073 L11.6761,23.1116 L9.5951,23.1116 C9.3049,23.1116 9.0741,23.3457 9.0741,23.6329 C9.0741,23.9197 9.3049,24.1539 9.5951,24.1539 L11.6761,24.1539 L11.6761,25.1925 C11.6761,25.4828 11.9068,25.7135 12.1968,25.7135 C12.4839,25.7135 12.7147,25.4828 12.7147,25.1925 L12.7147,24.1539 L25.2064,24.1539 C25.493,24.1539 25.724,23.9197 25.724,23.6329 C25.724,23.3457 25.493,23.1116 25.2064,23.1116" id="Fill-18"></path>
                <path d="M4.3913,21.552 C4.101,21.552 3.8703,21.7827 3.8703,22.073 L3.8703,25.1925 C3.8703,25.4828 4.101,25.7135 4.3913,25.7135 C4.6782,25.7135 4.9092,25.4828 4.9092,25.1925 L4.9092,22.073 C4.9092,21.7827 4.6782,21.552 4.3913,21.552" id="Fill-19"></path>
                <path d="M6.4722,21.552 C6.1848,21.552 5.9509,21.7827 5.9509,22.073 L5.9509,25.1925 C5.9509,25.4828 6.1848,25.7135 6.4722,25.7135 C6.7591,25.7135 6.9932,25.4828 6.9932,25.1925 L6.9932,22.073 C6.9932,21.7827 6.7591,21.552 6.4722,21.552" id="Fill-20"></path>
            </g>
        </g>
    </g>
</svg>