<?xml version="1.0" standalone="no"?>
<!DOCTYPE svg PUBLIC "-//W3C//DTD SVG 20010904//EN"
 "http://www.w3.org/TR/2001/REC-SVG-20010904/DTD/svg10.dtd">
<svg version="1.0" xmlns="http://www.w3.org/2000/svg"
 width="260.000000pt" height="260.000000pt" viewBox="0 0 260.000000 260.000000"
 preserveAspectRatio="xMidYMid meet">
<metadata>
Created by potrace 1.11, written by Peter Selinger 2001-2013
</metadata>
<g transform="translate(0.000000,260.000000) scale(0.100000,-0.100000)"
fill="#000000" stroke="none">
<path d="M891 2474 c-12 -9 -38 -18 -56 -20 -48 -4 -432 -199 -437 -221 -2
-10 -1 -36 2 -58 3 -22 2 -52 -3 -67 -9 -28 -30 -37 -118 -53 -19 -4 -41 -10
-47 -14 -7 -4 -57 -142 -113 -307 l-100 -299 18 -34 c24 -46 24 -88 1 -132
l-20 -36 50 -129 c35 -90 49 -138 45 -159 -6 -41 27 -76 70 -74 39 2 123 -44
130 -70 2 -11 -4 -34 -15 -51 -11 -19 -15 -36 -10 -43 22 -30 208 -263 217
-272 5 -6 34 -21 63 -35 75 -34 86 -52 61 -101 -10 -21 -19 -42 -19 -48 0 -5
44 -32 98 -59 l98 -51 102 1 c80 0 105 -4 118 -16 39 -39 106 -2 103 57 -3 42
64 157 90 157 25 0 53 58 40 81 -5 10 -14 21 -19 24 -12 8 -13 125 -1 125 5 0
14 13 19 30 9 24 7 33 -9 54 -17 22 -19 41 -19 204 0 100 4 183 9 186 5 3 14
19 19 36 9 24 7 33 -9 54 -16 21 -19 41 -19 149 0 98 3 127 15 137 8 7 15 27
15 45 0 18 -7 38 -15 45 -11 10 -15 35 -15 110 0 75 4 100 15 110 19 16 19 60
0 86 -21 28 -19 91 4 120 16 21 18 30 9 54 -5 17 -14 33 -19 36 -5 3 -9 72 -9
154 l0 148 -28 24 c-16 13 -32 35 -35 49 -9 37 -76 69 -142 69 -30 0 -57 5
-60 10 -9 15 -48 12 -74 -6z m154 -110 c3 -25 0 -58 -9 -85 -8 -24 -33 -105
-56 -179 -40 -129 -58 -163 -83 -155 -7 2 -93 29 -192 61 -99 31 -182 58 -184
60 -6 6 20 27 203 164 139 105 184 134 205 132 17 -2 34 5 48 20 36 38 60 31
68 -18z m-225 22 c0 -2 -42 -35 -92 -72 -108 -80 -104 -77 -143 -109 -67 -56
-115 -86 -116 -73 0 7 -2 24 -5 38 -2 14 0 30 4 35 4 6 84 50 177 97 185 95
175 90 175 84z m338 -83 c5 -10 8 -74 7 -143 -1 -155 -9 -170 -96 -195 -34 -9
-62 -15 -64 -13 -1 2 22 85 53 186 45 146 59 182 74 182 9 0 21 -8 26 -17z
m-782 -310 c-28 -73 -261 -583 -267 -583 -24 0 -10 61 71 306 l91 273 42 9
c64 15 70 14 63 -5z m322 -52 c89 -29 162 -54 162 -56 0 -11 -193 -106 -212
-103 -12 2 -29 17 -38 33 -9 17 -36 66 -60 109 -26 48 -37 77 -28 74 8 -3 87
-29 176 -57z m-188 -76 c23 -44 47 -85 52 -92 6 -7 7 -25 3 -40 -5 -21 -44
-56 -167 -148 -89 -66 -167 -126 -175 -134 -8 -7 -16 -12 -18 -10 -1 2 47 117
109 255 62 138 116 259 120 269 6 18 7 18 20 -1 7 -10 32 -55 56 -99z m656 18
c2 -54 -8 -58 -71 -25 l-59 29 45 16 c64 23 83 19 85 -20z m-105 -78 c38 -20
73 -43 76 -53 4 -9 12 -22 18 -28 16 -16 13 -206 -3 -212 -7 -2 -12 -9 -12
-16 0 -8 -71 -31 -192 -63 -106 -27 -195 -48 -197 -47 -2 2 3 18 12 36 8 18
39 83 67 143 28 61 67 145 87 187 20 43 44 79 52 81 9 3 17 5 19 6 1 0 34 -15
73 -34z m-204 -32 c-13 -27 -40 -84 -61 -128 -20 -44 -49 -107 -65 -140 l-28
-60 -12 70 c-21 125 -22 139 -5 178 10 20 20 37 25 37 4 0 42 20 86 45 43 24
79 45 81 45 1 0 -8 -21 -21 -47z m-238 -210 c7 -49 13 -92 13 -98 1 -5 5 -25
9 -43 12 -55 4 -57 -212 -56 -107 1 -198 2 -203 3 -6 0 6 12 25 26 19 13 47
35 62 47 153 118 274 207 283 207 7 1 16 -35 23 -86z m542 -150 c1 -5 2 -64 3
-133 1 -97 -2 -129 -13 -142 -8 -10 -17 -30 -19 -45 -2 -15 -27 -54 -56 -88
-29 -33 -61 -70 -72 -82 -10 -13 -22 -23 -25 -23 -7 0 -54 78 -124 205 -16 28
-39 67 -52 87 -12 21 -23 40 -23 44 0 3 -9 18 -19 33 -11 15 -16 32 -13 38 4
6 93 34 197 61 203 54 214 56 216 45z m-518 -125 c17 -18 15 -224 -2 -220 -6
1 -100 54 -209 117 l-196 115 198 0 c145 0 201 -3 209 -12z m-272 -140 c152
-89 205 -124 192 -129 -10 -3 -47 -9 -83 -13 -56 -6 -161 -20 -225 -30 -10 -1
-33 5 -50 15 -26 15 -39 38 -74 128 -37 95 -41 112 -29 130 7 12 23 21 36 21
13 0 118 -55 233 -122z m432 -83 c42 -71 74 -131 73 -133 -7 -6 -126 70 -126
80 0 6 -7 19 -15 28 -13 15 -21 82 -16 144 1 25 -2 31 84 -119z m362 -221 c0
-79 -2 -144 -5 -144 -3 0 -37 31 -75 70 l-69 69 25 28 c40 45 43 48 78 92 19
23 37 39 40 35 3 -3 6 -71 6 -150z m-645 100 c0 -2 -24 -17 -52 -34 -35 -19
-67 -30 -94 -30 -62 0 -131 39 -71 41 25 1 69 6 142 17 56 9 75 10 75 6z m134
-253 c-1 -133 -4 -244 -8 -248 -7 -7 -106 37 -106 47 0 3 -8 15 -18 26 -49 53
-162 200 -162 211 0 7 13 19 29 28 17 8 36 27 43 42 8 18 47 47 112 85 55 31
102 55 105 53 3 -1 5 -112 5 -244z m123 220 c27 -16 68 -40 93 -54 24 -13 46
-29 47 -34 2 -5 -42 -80 -97 -168 -73 -115 -100 -152 -101 -134 -1 30 -1 401
0 412 1 11 7 9 58 -22z m187 -238 c4 -32 11 -80 16 -108 18 -96 18 -114 5
-125 -7 -6 -57 -13 -112 -16 -54 -3 -104 -7 -110 -9 -22 -7 -15 6 67 135 44
69 87 139 97 157 9 18 20 30 23 28 4 -3 11 -31 14 -62z m162 -33 c7 -8 10 -18
7 -23 -2 -4 4 -22 15 -40 22 -37 23 -106 3 -131 -18 -22 -54 -20 -75 3 -10 11
-22 49 -27 87 -15 106 -17 116 -24 164 l-8 45 49 -45 c26 -25 53 -52 60 -60z
m14 -276 c0 -17 -77 -123 -92 -127 -13 -4 -42 7 -82 31 -33 20 -78 46 -99 57
-20 11 -37 22 -37 25 0 10 154 9 166 -1 21 -18 51 -18 79 0 23 14 65 23 65 15z
m-310 -90 c55 -31 102 -60 104 -63 3 -4 -23 -6 -57 -5 -48 1 -76 8 -124 33
-35 18 -63 35 -63 39 0 9 29 52 35 52 2 0 50 -25 105 -56z"/>
<path d="M1632 2476 c-16 -8 -39 -10 -68 -6 -30 5 -47 3 -54 -5 -6 -7 -24 -18
-40 -25 -17 -7 -33 -24 -39 -42 -6 -16 -22 -39 -36 -50 -25 -19 -25 -21 -25
-167 0 -114 -3 -152 -15 -167 -19 -25 -19 -68 0 -84 19 -16 19 -89 0 -114 -19
-26 -19 -70 0 -86 21 -17 21 -196 0 -224 -8 -11 -15 -29 -15 -41 0 -12 7 -30
15 -41 21 -28 21 -266 0 -284 -19 -16 -19 -60 0 -86 22 -28 22 -376 0 -394 -8
-7 -15 -25 -15 -41 0 -15 7 -34 15 -43 10 -9 15 -34 15 -69 0 -36 -5 -59 -15
-67 -32 -27 -12 -86 36 -103 26 -9 83 -118 80 -154 -3 -59 64 -96 104 -57 12
13 36 16 115 15 l100 -1 100 50 c55 28 100 55 100 60 0 6 -9 28 -19 48 -18 35
-18 39 -3 59 10 12 41 32 69 45 46 21 68 43 168 167 63 79 115 146 115 150 0
4 -7 16 -15 27 -8 10 -15 31 -15 46 0 21 9 32 48 54 28 16 60 26 79 25 45 -2
74 31 71 84 -1 28 13 75 47 159 48 118 48 118 30 148 -24 42 -25 96 -2 138
l20 35 -102 300 c-56 164 -105 302 -109 306 -4 3 -32 11 -62 17 -30 6 -62 12
-70 14 -31 6 -42 37 -38 106 l3 67 -209 106 c-134 68 -218 105 -234 103 -14
-1 -37 6 -50 17 -29 22 -48 23 -80 5z m-6 -97 c14 -13 32 -19 48 -17 19 2 64
-27 202 -132 98 -74 187 -140 198 -147 25 -14 43 -6 -193 -83 -125 -40 -190
-56 -201 -50 -10 5 -38 79 -73 194 -45 148 -56 194 -51 225 5 33 10 39 27 35
11 -2 30 -13 43 -25z m511 -210 c-1 -21 -7 -39 -12 -39 -9 0 -253 181 -325
241 -14 11 57 -21 157 -71 l182 -91 -2 -40z m-622 59 c16 -51 41 -133 56 -183
16 -49 26 -91 24 -94 -3 -2 -32 4 -65 14 -88 27 -96 43 -95 203 1 134 5 152
34 152 13 0 24 -22 46 -92z m777 -233 l37 -7 91 -272 c81 -245 95 -306 71
-306 -4 0 -17 21 -28 48 -12 26 -71 158 -132 294 -61 137 -111 251 -111 254 0
3 8 3 18 0 9 -3 34 -8 54 -11z m-243 -72 c-70 -129 -79 -143 -100 -143 -22 0
-213 99 -205 107 4 5 324 110 339 112 5 1 -11 -34 -34 -76z m125 25 c8 -18 36
-80 61 -138 26 -58 56 -125 67 -150 11 -25 29 -65 40 -90 11 -25 29 -63 39
-84 10 -22 18 -41 16 -42 -1 -1 -74 52 -162 118 -88 66 -168 125 -177 132 -37
26 -31 56 34 174 34 61 63 112 65 112 1 0 9 -15 17 -32z m-659 -45 l48 -16
-58 -29 c-61 -31 -74 -28 -69 15 1 12 3 28 3 35 1 16 18 15 76 -5z m124 -73
c5 0 27 -42 51 -92 24 -51 69 -148 102 -216 32 -68 58 -127 58 -131 0 -5 -84
13 -186 40 -230 59 -227 57 -229 183 -1 79 2 96 22 126 24 37 137 103 161 95
8 -3 17 -5 21 -5z m204 -76 c65 -32 91 -74 83 -128 -8 -49 -19 -129 -21 -148
-1 -10 -3 -20 -6 -22 -5 -5 -169 343 -169 357 0 5 12 0 28 -10 15 -11 53 -32
85 -49z m365 -253 c95 -71 169 -131 165 -133 -4 -3 -97 -4 -206 -4 -160 1
-200 4 -207 16 -5 8 -7 17 -5 20 2 3 10 57 19 120 21 145 21 144 43 125 10 -8
96 -73 191 -144z m-538 -138 c96 -25 178 -50 181 -55 6 -9 -198 -378 -222
-402 -5 -6 -16 -3 -26 10 -89 98 -133 154 -133 170 0 10 -7 33 -16 49 -13 22
-17 61 -18 150 -1 66 0 123 2 128 4 8 7 8 232 -50z m677 -67 c2 -2 -85 -56
-194 -120 l-198 -116 -5 83 c-6 102 0 139 26 152 19 9 362 11 371 1z m152 -48
c11 -18 7 -35 -30 -130 -35 -91 -48 -112 -73 -126 -32 -16 -49 -18 -101 -9
-16 3 -73 11 -125 17 -52 6 -108 13 -123 16 l-29 6 34 21 c185 113 403 234
417 230 9 -2 23 -14 30 -25z m-615 -115 c-3 -89 -24 -126 -98 -169 -32 -19
-60 -34 -61 -32 -4 4 149 268 155 268 3 0 5 -30 4 -67z m-368 -214 l67 -80
-68 -69 c-38 -38 -71 -67 -74 -64 -6 6 -9 275 -4 287 7 12 9 10 79 -74z m644
16 c36 -4 76 -9 90 -10 14 -2 36 -4 50 -4 l25 -2 -24 -19 c-36 -31 -102 -27
-167 11 -30 17 -54 33 -54 35 0 3 3 3 8 1 4 -3 36 -8 72 -12z m-276 -214 c1
-117 -1 -214 -3 -217 -5 -5 -194 298 -195 314 -1 13 172 122 188 118 6 -1 10
-93 10 -215z m220 132 c28 -16 57 -41 65 -56 9 -16 27 -33 41 -40 14 -7 26
-19 28 -27 1 -8 -25 -49 -58 -90 -34 -41 -76 -94 -93 -116 -19 -25 -54 -53
-84 -68 l-53 -26 -1 78 c0 82 0 345 1 400 l0 34 53 -30 c28 -16 74 -43 101
-59z m-539 -233 c-22 -150 -22 -150 -41 -171 -21 -24 -56 -24 -76 -1 -19 23
-17 101 5 132 9 13 17 31 17 39 0 15 100 124 108 117 2 -2 -4 -54 -13 -116z
m278 -192 c2 -11 -35 -12 -162 -2 -50 3 -85 18 -77 33 2 3 6 29 10 56 3 28 8
59 10 70 2 12 7 48 11 80 4 33 10 64 12 68 5 8 191 -282 196 -305z m-313 -83
c28 -15 37 -15 59 -4 20 11 191 21 191 12 0 -1 -47 -29 -105 -62 -126 -72
-135 -71 -183 17 -36 67 -31 72 38 37z m364 -37 c9 -12 16 -26 16 -30 0 -4
-28 -22 -62 -39 -47 -24 -77 -32 -121 -33 -32 -1 -61 2 -63 6 -3 5 -1 8 5 8 5
0 51 25 103 55 51 30 96 54 100 55 4 0 14 -10 22 -22z"/>
</g>
</svg>
